{
   "waitForObjectTimeout": 3000,
   "waitForAppStartTimeout": 60000, 
   "waitForAppStopTimeout": 30000, 
   "waitForAppAttachTimeout": 3000, 
   "longOperationTimeout": 10000, 
   "screenshotOnFail": true, 
   "continueAfterFail": false
}